CENTRALE;REGGIO;4504725806;20/03/2017;620090810;Pos. storn.   COZZE SPAGNA SFUSE (GORO) KG;0,0;
CENTRALE;REGGIO;4504725806;20/03/2017;620090840;FASOLARO ITALIA SFUSO (GORO) KG;1;5,0;1;




CENTRALE;REGGIO;4504725806;20/03/2017;620090910;OSTRICA CONCAVA FR SFUSA(GORO)KG;1;5,0;1;



CENTRALE;REGGIO;4504725806;20/03/2017;620091540;VONGOLA VERACE GR SFUSA (GORO)KG;41;5,0;1;



CENTRALE;REGGIO;4504725806;20/03/2017;620091350;OSTRICA CONCAVA FR 1KG (GORO) KG;1;1,0;1;



CENTRALE;REGGIO;4504725806;20/03/2017;620091370;OSTRICA CONCAVA FR 3KG (GORO) KG;1;3,0;1;



CENTRALE;REGGIO;4504725806;20/03/2017;620091490;TRIS DI MOLLUSCHI 1 (GORO) KG;23;5,0;1;



CENTRALE;REGGIO;4504725806;20/03/2017;620091550;VONGOLA VERACE GR 500G(GORO) KG;95;5,0;1;



CENTRALE;REGGIO;4504725806;20/03/2017;620090800;Nuova pos.    COZZE ITALIA SFUSE (GORO) KG;23;5,0;1;



