ORTOFIN;ORTOFIN;;;21020010;COZZA SPAGNA KG 10;0.0;X10;0.0;0.0;0.0;
ORTOFIN;ORTOFIN;;;26010020;COZZA SPAGNA KG 5;0.0;X5;0.0;0.0;0.0;
ORTOFIN;ORTOFIN;;;26010002;COZZA SPAGNA SBISSATA KG 5;1.0;X5;0.0;0.0;0.0;
ORTOFIN;ORTOFIN;;;26010110;COZZA ITALIA KG 10;22.0;X10;0.0;0.0;0.0;
ORTOFIN;ORTOFIN;;;26010109;COZZA ITALIA KG 5;9.0;X5;0.0;0.0;0.0;
ORTOFIN;ORTOFIN;;;26010004;COZZA ITALIA SBISSATA KG 5;0.0;X5;0.0;0.0;0.0;
ORTOFIN;ORTOFIN;;;26010012;VONGOLA VERACE GRANDE KG 5;15.0;x5;0.0;0.0;0.0;
ORTOFIN;ORTOFIN;;;26010107;VONGOLA VERACE GRANDE KG 3 DA 1/2;9.0;x3;0.0;
ORTOFIN;ORTOFIN;;;21020036;VONGOLA VERACE EXTRA KG 5;1.0;x5;0.0;
ORTOFIN;ORTOFIN;;;26010094;VONGOLA O LUPINO KG 3 DA 1/2;0.0;X3;0.0;
ORTOFIN;ORTOFIN;;;26010022;FASOLARO KG 3;0.0;X3;0.0;
ORTOFIN;ORTOFIN;;;21050020;CANNOLICCHIO KG 1;0.0;X1;0.0;
ORTOFIN;ORTOFIN;;;26010145;CANNOLICCHIO KG 3;0.0;X3;0.0;
ORTOFIN;ORTOFIN;;;26010171;LUMACHINO KG 3;0.0;X3;0.0;
ORTOFIN;ORTOFIN;;;26010133;MURICE SPINOSO KG 2;0.0;X2;0.0;
ORTOFIN;ORTOFIN;;;21040056;RICCIO DI MARE KG 1;0.0;X1;0.0;
ORTOFIN;ORTOFIN;;;26010162;RICCIO DI MARE KG 3;0.0;X3;0.0;
ORTOFIN;ORTOFIN;;;21080031;TARTUFO SPAGNA KG 1;0.0;X1;0.0;
ORTOFIN;ORTOFIN;;;26010025;CAPPE CUORE KG 1;0.0;X1;0.0;
ORTOFIN;ORTOFIN;;;26010222;TELLINA KG 3;0.0;X3;0.0;
ORTOFIN;ORTOFIN;;;26010061;TRIS DI MARE KG 2 (COZZA SPAGNA);0.0;X2;0.0;
ORTOFIN;ORTOFIN;;;26010358;TRIS DI MARE KG 2 (COZZA ITALIA);0.0;X2;0.0;
ORTOFIN;ORTOFIN;;;26010071;COZZA SPAGNA SOTTOVUOTO KG 1;0.0;X4;0.0;
ORTOFIN;ORTOFIN;;;26010036;COZZA ITALIA SOTTOVUOTO KG 1;13.0;X4;0.0;
ORTOFIN;ORTOFIN;;;26010153;VONGOLA VERACE SOTTOVUOTO KG 0,5;5.0;X4;0.0;
ORTOFIN;ORTOFIN;;;21030032;OSTRICA FRANCIA KG 1;0.0;X1;
ORTOFIN;ORTOFIN;;;26010103;OSTRICA FRANCIA KG 3;0.0;X3;
