CARREFOUR;PESCE-NORD-EST;11366910;22/02/2021;23547; COZZA (ESTERA) 10 100;0;20;2;,02;1,6;32;
CARREFOUR;PESCE-NORD-EST;11366910;22/02/2021;23549; FASOLARO (6X500 GR.) 3 100;0;3;1;,01;8,6;25,8;
CARREFOUR;PESCE-NORD-EST;11366910;22/02/2021;23551; LUMACHINO (6X500 GR.) 3 100;0;18;6;,06;5,5;99;
CARREFOUR;PESCE-NORD-EST;11366910;22/02/2021;23557; LUPINO (EX ARSELLA) 5 100;0;5;1;,01;3,5;17,5;
CARREFOUR;PESCE-NORD-EST;11366910;22/02/2021;919386;1 COZZA (ESTERA KG 5) 5 100;0;20;4;,04;1,6;32;
CARREFOUR;PESCE-NORD-EST;11366910;22/02/2021;919853;1 LUPINO 3 KG.(6X500 GR.) 3 100;0;9;3;,03;3,6;32,4;
CARREFOUR;PESCE-NORD-EST;11366910;22/02/2021;1355485;VONGOLA VERACE;0;4;2;2;7,55;30,2;
CARREFOUR;PESCE-NORD-EST;11366910;22/02/2021;1425137;TRIS FRUTTI;0;4;2;2;6,65;26,6;
CARREFOUR;PESCE-NORD-EST;11366910;22/02/2021;1679990;VONGOLE VERACI;0;9;3;3;11,2;100,8;
