LANDO;NOALE;244799;30/03/2020;42289-2;PESCE COZZA;25,00;
LANDO;NOALE;244799;30/03/2020;42294-1;PESCE OSTRICA;1,00;
LANDO;NOALE;244799;30/03/2020;69736-1;PESCE TRIS;1,00;
LANDO;NOALE;244799;30/03/2020;42297-1;PESCE VONGOLA;15,00;
LANDO;NOALE;244799;30/03/2020;58673-1;PESCE VONGOLE;15,00;
LANDO;CONSELVE;244800;30/03/2020;42289-1;PESCE COZZA;30,00;
LANDO;CONSELVE;244800;30/03/2020;47026-1;PESCE LUMACHINE;3,00;
LANDO;CONSELVE;244800;30/03/2020;42294-1;PESCE OSTRICA;1,00;
LANDO;CONSELVE;244800;30/03/2020;42297-1;PESCE VONGOLA;10,00;
LANDO;CONSELVE;244800;30/03/2020;58673-1;PESCE VONGOLE;5,00;
LANDO;VIGONZA;244803;30/03/2020;42289-2;PESCE COZZA;25,00;
LANDO;VIGONZA;244803;30/03/2020;42294-1;PESCE OSTRICA;1,00;
LANDO;VIGONZA;244803;30/03/2020;42297-1;PESCE VONGOLA;10,00;
LANDO;VIGONZA;244803;30/03/2020;58673-1;PESCE VONGOLE;5,00;
LANDO;VEGGIANO;244804;30/03/2020;42289-1;PESCE COZZA;30,00;
LANDO;VEGGIANO;244804;30/03/2020;42294-1;PESCE OSTRICA;1,00;
LANDO;VEGGIANO;244804;30/03/2020;42297-1;PESCE VONGOLA;15,00;
LANDO;CAMPOSAMPIERO;244806;30/03/2020;42289-1;PESCE COZZA;50,00;
LANDO;CAMPOSAMPIERO;244806;30/03/2020;42294-1;PESCE OSTRICA;1,00;
LANDO;CAMPOSAMPIERO;244806;30/03/2020;42297-1;PESCE VONGOLA;15,00;
LANDO;CAMPOSAMPIERO;244806;30/03/2020;58673-1;PESCE VONGOLE;10,00;
