STOREDEN;SIMONE CALLEGARI;20935367_5f9bbe46eb84f;30/10/2020;20943595;VONGOLE VERACI;5;12.1;21435137;SIMONE CALLEGARI;VIA GAVIOLI EDA 32;44020;GORO;FE;3351317888;UFFICIO.VENDITE@COPEGO.IT;CLLSMN69R19E107O;66.5;SCONTO_BENVENUTO;28.5
STOREDEN;SIMONE CALLEGARI;20935367_5f9bbe46eb84f;30/10/2020;21102763;COZZE SBISSATE - SPAGNA;5;2.5;21435137;SIMONE CALLEGARI;VIA GAVIOLI EDA 32;44020;GORO;FE;3351317888;UFFICIO.VENDITE@COPEGO.IT;CLLSMN69R19E107O;66.5;SCONTO_BENVENUTO;28.5
STOREDEN;SIMONE CALLEGARI;20935367_5f9bbe46eb84f;30/10/2020;21295242;LUPINO;5;4.4;21435137;SIMONE CALLEGARI;VIA GAVIOLI EDA 32;44020;GORO;FE;3351317888;UFFICIO.VENDITE@COPEGO.IT;CLLSMN69R19E107O;66.5;SCONTO_BENVENUTO;28.5
